…
``` r
# Sales & quantity by package size

transactions %>%
  group_by(SIZE) %>%
  summarise(
    TotalSales = sum(NETAMOUNT, na.rm = TRUE),
    TotalQty   = sum(LINEQTY,  na.rm = TRUE)
  ) %>%
  arrange(desc(TotalSales))
```

```
## # A tibble: 36 × 3
##    SIZE  TotalSales TotalQty
##    <chr>      <dbl>    <dbl>
##  1 750ML 131020386.  6039756
##  2 1.75L  43902274.  1444640
##  3 12.0Z  13699709.   844580
##  4 1L     11097585.   480518
##  5 375ML   8352566.   811572
##  6 1.5L    5794310.   423448
##  7 50ML    4438538.  2836377
##  8 3L      3481740.   169073
##  9 355ML   2340103.   148296
## 10 200ML   2331356.   350634
## # ℹ 26 more rows
```

``` r
# Sales by category type (e.g., VODKA, PROSECCO, etc.)

transactions %>%
  group_by(CLASSIFICATIONTYPE) %>%
  summarise(TotalSales = sum(NETAMOUNT, na.rm = TRUE))
```

```
## # A tibble: 102 × 2
##    CLASSIFICATIONTYPE TotalSales
##    <chr>                   <dbl>
##  1 ALES                 2070524.
##  2 APERITIF              115210.
##  3 BAROLO                 40554.
##  4 BEAUJOLAIS             52585.
##  5 BEAUJOLAIS VILLAGE     87642.
##  6 BIANCO                  1649.
##  7 BLANC                  28187.
##  8 BLUSH                 148868.
##  9 BOURBON             17299433.
## 10 BRANDY               1947305.
## # ℹ 92 more rows
```
…
